{
  "type": "service_account",
  "project_id": "nsp-records-admin",
  "private_key_id": "bee5c9d42ea9b4ffd18cc305a9a4495d85fe6ae9",
  "private_key": "-----BEGIN PRIVATE KEY-----\nMIIEvAIBADANBgkqhkiG9w0BAQEFAASCBKYwggSiAgEAAoIBAQCodm7jkbLy2eWu\nl47DaemzVEKxQa39bmjiN1HDUQQVIziruF9PHDe+7ceaEZ5YhRPSs6oP1+DODGZF\nQ6ibSwD3Mmf0lJaPZrJaMZd8bVGryhuGGtY7B7Irbv0iV4+3WHCgvTT8hUsGRJJO\nLF8f08OZsLGqkBnQD5y8TI+sTkT4qWdzo/Ye9KkZx8qToE0Eoey3ZXKO4Zd3kCRi\nUykcancK6ho4P7DVgP1BEoHZF+cAZJJZa5MrkMUCLAVpNysRNHPpvV39s5cHVxZM\nDSL5ivqU5edzHkiNbP3AiXc9q1hC+IDEZH5iALwGMMm3w/bKs1Eym5eGdwvl2xyf\n1zvTzRCtAgMBAAECggEAB911qmbGQ8vUCx100x9KA68aqQNvv94MhAlApj2NUv5Q\nukWyn3MqEB4yXDlX2vqllQgB19kEnCIckT3KLKvpCOF/1H2udNX+3DKmB69j6YEX\nXWC54Uon8ZquM1ECuvTkV0DWLTb87Hc9nGw6abY9ktqaxOOS7PGZp/nsGEeUNUbB\n7r7AEA5yAJjZHB2qSGl9p7kvewReKo+/RsIMuszoYHyF+/kD5WAqgHQdVmL/0RFx\nSTb3rdl70TKi3F/jVL2WerG3fnUgUAbtys0bGo2f5IVzem36ufGVigWOxZ1vBw+B\nMkIuQU2R0fc9WCbIcKe/P6zDCV9BZUMBfdH4AKyHiQKBgQDqcGAKdqNw+baYUCn0\nfHbqD8ZZhf5pZaqY9IetRrKbv8dF77WvLkNJZJDjNoe8o6f6xiL7UjJEoE/orw3Z\nG90FO4q9zx363oxj7tE2nomEx7hgi9YKVaUZ3x5zL7n2o7pawvQCqor/nR8cr97u\nupoPCd8YnYtcUrABus6BCD9IdQKBgQC39LZ/Yz/f1QfJlAgPcT3EXiIlIOmbYv+E\nENWhHvpgwEyPgmpu47969TMC2NW3sOempKToWh52Hi1ZEjM3rRoWCFp6Lr3ff5jT\nT0qH9nXzNL/sXBBcgwNmVFOV3x0worD7FVdsgvPf4du0p1UTJ2e5pF/RH1JSo+5S\nG8bLQ/1gWQKBgHRx7MJFu1jaL7/n0W8Gg2ou+65rx7pCLUJb8yg1/XEvCKPMNMoW\niIVj1jOFWlZwU3dUAvwiD6XWmtpQWOiF1npK4Nb2kUWSVNkuPeyLQnMZYJNT4bSw\nZZk8IbvE8PF40Y9TVjAc1X2xZUqycGDTfsIJfS6U0ivBRnsVdozQs94hAoGAMEJR\nsj+uXSE9BsQADVUO+DodyRHGV050bAgikz9WPhWUwD1dgLPc4vv6ou+Rubv+ObiN\nzqr9vM0T5n8g0qVl54vPeKhUhZKq3By8F8kvjlszUmWgoTR5qtnKh9HdjYnQ1j32\nDnCYXA6bndwcNIcs7gXSYUFPToDVH9NLpr2ydhkCgYAR0YZrcsJxOnpAjAzI87TJ\nH8MsaMfoOkYa6SwL+bDrm7py0RruiaK7WLKPBsmnDnK04yfoYvftN9IuZwDJCxaL\nzM6hPXHe5VUDRjYaLh7QU81b03m6sMEDPEdrsuQXNCclDAZdqxPRa5SfOgZ2GA10\n68486lf6O9q/McZlLXlZiQ==\n-----END PRIVATE KEY-----\n",
  "client_email": "records-admin@nsp-records-admin.iam.gserviceaccount.com",
  "client_id": "110371586924335280847",
  "auth_uri": "https://accounts.google.com/o/oauth2/auth",
  "token_uri": "https://accounts.google.com/o/oauth2/token",
  "auth_provider_x509_cert_url": "https://www.googleapis.com/oauth2/v1/certs",
  "client_x509_cert_url": "https://www.googleapis.com/robot/v1/metadata/x509/records-admin%40nsp-records-admin.iam.gserviceaccount.com"
}
