{
	"title": "Illinois Team",
	"parent":null,
	"chapters": [
		{
			"title": "TIU",
			"id": "7"
		},
		{
			"title": "TIU HomeTown",
			"id": "8"
		},
		{
			"title": "TCC",
			"id": "9"
		},
		{
			"title": "TCC HomeTown",
			"id": "10"
		},
		{
			"title": "MBI",
			"id": "11"
		},
		{
			"title": "MBI HomeTown",
			"id": "12"
		},
		{
			"title": "WC",
			"id": "13"
		},
		{
			"title": "WC HomeTown",
			"id": "14"
		},
		{
			"title": "IL Region",
			"id": "18"
		},
		{
			"title": "SWS",
			"id": "24"
		},
		{
			"title": "Green Bay",
			"id": "28"
		},
		{
			"title": "IL Expansion",
			"id": "29"
		},
		{
			"title": "Southside Chicago",
			"id": "30"
		}
	]
}
